mu0_tb_results.vcd
$date
	Tue Dec 15 19:36:32 2020
$end
$version
	Icarus Verilog
$end
$timescale
	100ps
$end
$scope module mu0_tb $end
$var wire 1 ! Wr $end
$var wire 1 " Rd $end
$var wire 1 # Halted $end
$var wire 16 $ Data_out [15:0] $end
$var wire 16 % Data_in [15:0] $end
$var wire 12 & Address [11:0] $end
$var reg 1 ' Clk $end
$var reg 1 ( Reset $end
$scope module dut $end
$var wire 1 ' Clk $end
$var wire 1 ( Reset $end
$var wire 1 ) fetch $end
$var wire 1 * Z $end
$var wire 1 + Y_sel $end
$var wire 1 , X_sel $end
$var wire 1 ! Wr $end
$var wire 1 " Rd $end
$var wire 1 - PC_En $end
$var wire 1 . N $end
$var wire 2 / M [1:0] $end
$var wire 1 0 IR_En $end
$var wire 1 # Halted $end
$var wire 4 1 F [3:0] $end
$var wire 16 2 Data_out [15:0] $end
$var wire 16 3 Data_in [15:0] $end
$var wire 1 4 Addr_sel $end
$var wire 12 5 Addr [11:0] $end
$var wire 1 6 Acc_En $end
$scope module control $end
$var wire 1 6 Acc_En $end
$var wire 1 4 Addr_sel $end
$var wire 1 ' Clk $end
$var wire 1 # Halted $end
$var wire 1 0 IR_En $end
$var wire 1 - PC_En $end
$var wire 1 " Rd $end
$var wire 1 ( Reset $end
$var wire 1 ! Wr $end
$var wire 1 , X_sel $end
$var wire 1 + Y_sel $end
$var wire 1 7 add $end
$var wire 1 8 b1 $end
$var wire 1 9 b2 $end
$var wire 1 : b3 $end
$var wire 1 ) fetch $end
$var wire 1 ; j1 $end
$var wire 1 < j2 $end
$var wire 1 = jge $end
$var wire 1 > jmp $end
$var wire 1 ? jne $end
$var wire 1 @ lda $end
$var wire 1 A nF0 $end
$var wire 1 B nF1 $end
$var wire 1 C nF2 $end
$var wire 1 D nN $end
$var wire 1 E nZ $end
$var wire 1 F not_Clk $end
$var wire 1 G not_Halted $end
$var wire 1 H not_s $end
$var wire 1 I not_state $end
$var wire 1 J s $end
$var wire 1 K sta $end
$var wire 1 L state $end
$var wire 1 M sub $end
$var wire 1 N t1 $end
$var wire 1 O t2 $end
$var wire 1 P t3 $end
$var wire 1 * Z $end
$var wire 1 . N $end
$var wire 2 Q M [1:0] $end
$var wire 4 R F [3:0] $end
$upscope $end
$scope module datapath $end
$var wire 1 6 Acc_En $end
$var wire 1 4 Addr_sel $end
$var wire 1 ' Clk $end
$var wire 16 S Data_out [15:0] $end
$var wire 4 T F [3:0] $end
$var wire 1 0 IR_En $end
$var wire 2 U M [1:0] $end
$var wire 1 - PC_En $end
$var wire 1 ( Reset $end
$var wire 1 , X_sel $end
$var wire 1 + Y_sel $end
$var wire 1 * Z $end
$var wire 16 V Y [15:0] $end
$var wire 16 W X [15:0] $end
$var wire 12 X PC [11:0] $end
$var wire 1 . N $end
$var wire 16 Y IR [15:0] $end
$var wire 16 Z Data_in [15:0] $end
$var wire 12 [ Address [11:0] $end
$var wire 16 \ Acc [15:0] $end
$var wire 16 ] ALU [15:0] $end
$scope module ACCReg $end
$var wire 1 ' Clk $end
$var wire 1 6 En $end
$var wire 1 ( Reset $end
$var wire 16 ^ D [15:0] $end
$var reg 16 _ Q [15:0] $end
$upscope $end
$scope module AddrMux $end
$var wire 12 ` B [11:0] $end
$var wire 1 4 S $end
$var wire 12 a A [11:0] $end
$var reg 12 b Q [11:0] $end
$upscope $end
$scope module FLAGS $end
$var wire 16 c Acc [15:0] $end
$var reg 1 . N $end
$var reg 1 * Z $end
$upscope $end
$scope module IRReg $end
$var wire 1 ' Clk $end
$var wire 1 0 En $end
$var wire 1 ( Reset $end
$var wire 16 d D [15:0] $end
$var reg 16 e Q [15:0] $end
$upscope $end
$scope module PCReg $end
$var wire 1 ' Clk $end
$var wire 12 f D [11:0] $end
$var wire 1 - En $end
$var wire 1 ( Reset $end
$var reg 12 g Q [11:0] $end
$upscope $end
$scope module XMux $end
$var wire 16 h A [15:0] $end
$var wire 16 i B [15:0] $end
$var wire 1 , S $end
$var reg 16 j Q [15:0] $end
$upscope $end
$scope module YMux $end
$var wire 16 k B [15:0] $end
$var wire 1 + S $end
$var wire 16 l A [15:0] $end
$var reg 16 m Q [15:0] $end
$upscope $end
$scope module mu0_ALU $end
$var wire 2 n M [1:0] $end
$var wire 16 o Q [15:0] $end
$var wire 16 p X [15:0] $end
$var wire 1 q Xone_two_three $end
$var wire 16 r Y [15:0] $end
$var wire 16 s Ythree [15:0] $end
$var wire 16 t Yzero_one [15:0] $end
$var wire 16 u a [15:0] $end
$var wire 16 v ab [15:0] $end
$var wire 16 w axorb [15:0] $end
$var wire 16 x b [15:0] $end
$var wire 16 y cin_axorb [15:0] $end
$var wire 16 z cout [15:0] $end
$var wire 2 { not_M [1:0] $end
$var wire 16 | not_Y [15:0] $end
$upscope $end
$upscope $end
$upscope $end
$scope module memory $end
$var wire 12 } Addr [11:0] $end
$var wire 1 ' Clk $end
$var wire 16 ~ Data_in [15:0] $end
$var wire 1 " Rd $end
$var wire 1 ! Wr $end
$var reg 16 !" Data_out [15:0] $end
$upscope $end
$upscope $end
$enddefinitions $end
#0
$dumpvars
bx !"
bx ~
bx }
bx |
bx {
bx z
bx y
bx x
bx w
bx v
bx u
bx t
bx s
bx r
xq
bx p
bx o
bx n
bx m
bx l
bx k
bx j
b0xxxxxxxxxxxx i
bx h
bx g
bx f
bx e
bx d
bx c
bx b
bx a
bx `
bx _
bx ^
bx ]
bx \
bx [
bx Z
bx Y
bx X
bx W
bx V
bx U
bx T
bx S
bx R
bx Q
0P
xO
xN
xM
xL
xK
xJ
xI
xH
xG
1F
xE
xD
xC
xB
xA
x@
x?
x>
x=
x<
x;
0:
x9
x8
x7
x6
bx 5
x4
bx 3
bx 2
bx 1
x0
bx /
x.
x-
x,
x+
x*
x)
x(
0'
bx &
bx %
bx $
x#
x"
x!
$end
#500
0O
09
0F
xP
x:
1'
#1000
b0xxxxxxxxxxxxx ]
b0xxxxxxxxxxxxx ^
b0xxxxxxxxxxxxx o
b0xxxxxxxxxxxx z
b0xxxxxxxxxxxx y
b0xxxxxxxxxxxx w
b0xxxxxxxxxxxx u
b0xxxxxxxxxxxx $
b0xxxxxxxxxxxx 2
b0xxxxxxxxxxxx S
b0xxxxxxxxxxxx ~
b0xxxxxxxxxxxx W
b0xxxxxxxxxxxx j
b0xxxxxxxxxxxx p
b0 v
b0 x
b0 t
1q
b0 s
18
b1 {
0!
06
0<
0;
1G
1N
10
1,
1-
b10 /
b10 Q
b10 U
b10 n
1"
1O
1I
04
0@
0K
07
0M
0>
0=
0?
0#
1)
0J
1F
0P
0:
0L
0H
0'
1(
#1500
b1 f
b0 z
b1 ]
b1 ^
b1 o
b0 y
b0 w
b0 u
b0 $
b0 2
b0 S
b0 ~
b0 &
b0 5
b0 [
b0 b
b0 }
b0 W
b0 j
b0 p
0+
1C
1B
1A
1D
0E
b0 1
b0 R
b0 T
0.
1*
b0 `
b0 i
b0 X
b0 a
b0 g
b0 \
b0 _
b0 c
b0 h
b0 Y
b0 e
b0 k
1P
1J
0O
0F
1'
#2000
b1110111111011101 |
b1000000100010 V
b1000000100010 m
b1000000100010 r
b1000000100010 %
b1000000100010 3
b1000000100010 Z
b1000000100010 d
b1000000100010 l
b1000000100010 !"
1H
0J
1O
1F
0P
0'
0(
#2500
b100010 &
b100010 5
b100010 [
b100010 b
b100010 }
0"
1!
1K
0A
b1 1
b1 R
b1 T
b100010 `
b1000000100010 Y
b1000000100010 e
b1000000100010 k
b1 i
b1 X
b1 a
b1 g
b1000000100010 w
b1000000100010 x
b1000000100010 t
b100010 f
0q
b1000000100010 ]
b1000000100010 ^
b1000000100010 o
b11 {
06
00
0,
0-
b0 /
b0 Q
b0 U
b0 n
14
0@
0)
1L
0N
0O
0I
0F
1:
1'
#3000
1J
0H
19
1F
0:
0'
#3500
b1 z
b1 y
b1 u
b1 $
b1 2
b1 S
b1 ~
b1 W
b1 j
b1 p
b1 &
b1 5
b1 [
b1 b
b1 }
b1 w
b0 x
b0 t
b10 f
1q
b10 ]
b10 ^
b10 o
b1 {
1N
0!
10
1,
1-
b10 /
b10 Q
b10 U
b10 n
1"
1I
04
0K
1)
09
0L
0F
1P
1'
#4000
b1111111111100011 |
b11100 V
b11100 m
b11100 r
b11100 %
b11100 3
b11100 Z
b11100 d
b11100 l
b11100 !"
1H
0J
1O
1F
0P
0'
#4500
16
1@
1A
b0 1
b0 R
b0 T
b0 $
b0 2
b0 S
b0 ~
b11100 `
b0 W
b0 j
b0 p
b11100 &
b11100 5
b11100 [
b11100 b
b11100 }
b11100 Y
b11100 e
b11100 k
b10 i
b10 X
b10 a
b10 g
b11100 x
b11100 w
b11100 t
b0 u
b11100 f
b0 z
0q
b11100 ]
b11100 ^
b11100 o
b0 y
b11 {
0!
00
0,
0-
b0 /
b0 Q
b0 U
b0 n
1"
14
0K
0)
1L
0N
0O
0I
0F
1:
1'
#5000
b0 f
b1000000000000000 ]
b1000000000000000 ^
b1000000000000000 o
b1000000000000000 w
b1000000000000000 x
b111111111111111 |
b1000000000000000 t
b1000000000000000 V
b1000000000000000 m
b1000000000000000 r
b1000000000000000 %
b1000000000000000 3
b1000000000000000 Z
b1000000000000000 d
b1000000000000000 l
b1000000000000000 !"
1J
0H
19
1F
0:
0'
#5500
0D
1E
b10 u
b10 $
b10 2
b10 S
b10 ~
1.
0*
b10 W
b10 j
b10 p
b10 &
b10 5
b10 [
b10 b
b10 }
b1000000000000000 \
b1000000000000000 _
b1000000000000000 c
b1000000000000000 h
b10 w
b0 x
b0 t
b11 f
1q
b11 ]
b11 ^
b11 o
b1 {
1N
06
10
1,
1-
b10 /
b10 Q
b10 U
b10 n
1I
04
0@
1)
09
0L
0F
1P
1'
#6000
b1110111111011100 |
b1000000100011 V
b1000000100011 m
b1000000100011 r
b1000000100011 %
b1000000100011 3
b1000000100011 Z
b1000000100011 d
b1000000100011 l
b1000000100011 !"
1H
0J
1O
1F
0P
0'
#6500
0"
1!
1K
0A
b1 1
b1 R
b1 T
b1000000000000000 $
b1000000000000000 2
b1000000000000000 S
b1000000000000000 ~
b100011 `
b1000000000000000 W
b1000000000000000 j
b1000000000000000 p
b100011 &
b100011 5
b100011 [
b100011 b
b100011 }
b1000000100011 Y
b1000000100011 e
b1000000100011 k
b11 i
b11 X
b11 a
b11 g
b1000000100011 x
b1000000100011 w
b1000000100011 t
b0 u
b100011 f
0q
b1000000100011 ]
b1000000100011 ^
b1000000100011 o
b11 {
06
00
0,
0-
b0 /
b0 Q
b0 U
b0 n
14
0@
0)
1L
0N
0O
0I
0F
1:
1'
#7000
1J
0H
19
1F
0:
0'
#7500
b11 $
b11 2
b11 S
b11 ~
b11 W
b11 j
b11 p
b11 &
b11 5
b11 [
b11 b
b11 }
b0 x
b11 w
b0 t
b11 u
b100 f
b11 z
1q
b100 ]
b100 ^
b100 o
b11 y
b1 {
1N
0!
10
1,
1-
b10 /
b10 Q
b10 U
b10 n
1"
1I
04
0K
1)
09
0L
0F
1P
1'
#8000
b1101111111100011 |
b10000000011100 V
b10000000011100 m
b10000000011100 r
b10000000011100 %
b10000000011100 3
b10000000011100 Z
b10000000011100 d
b10000000011100 l
b10000000011100 !"
1H
0J
1O
1F
0P
0'
#8500
16
17
0B
1A
b10 1
b10 R
b10 T
b1000000000000000 $
b1000000000000000 2
b1000000000000000 S
b1000000000000000 ~
b11100 `
b1000000000000000 W
b1000000000000000 j
b1000000000000000 p
b11100 &
b11100 5
b11100 [
b11100 b
b11100 }
b10000000011100 Y
b10000000011100 e
b10000000011100 k
b100 i
b100 X
b100 a
b100 g
b10000000011100 x
b1010000000011100 w
b10000000011100 t
b1000000000000000 u
b11100 f
b0 z
1q
b1010000000011100 ]
b1010000000011100 ^
b1010000000011100 o
b0 y
b10 {
0!
00
0,
0-
b1 /
b1 Q
b1 U
b1 n
1"
14
0K
0)
1L
0N
0O
0I
0F
1:
1'
#9000
b0 f
b0 ]
b0 ^
b0 o
b1000000000000000 z
b0 w
b1000000000000000 v
b1000000000000000 x
b111111111111111 |
b1000000000000000 t
b1000000000000000 V
b1000000000000000 m
b1000000000000000 r
b1000000000000000 %
b1000000000000000 3
b1000000000000000 Z
b1000000000000000 d
b1000000000000000 l
b1000000000000000 !"
1J
0H
19
1F
0:
0'
#9500
1D
0E
b100 u
b100 $
b100 2
b100 S
b100 ~
0.
1*
b100 W
b100 j
b100 p
b100 &
b100 5
b100 [
b100 b
b100 }
b0 \
b0 _
b0 c
b0 h
b0 z
b100 w
b0 v
b0 x
b0 t
b101 f
b101 ]
b101 ^
b101 o
b1 {
1N
06
10
1,
1-
b10 /
b10 Q
b10 U
b10 n
1I
04
07
1)
09
0L
0F
1P
1'
#10000
b1110111111011011 |
b1000000100100 V
b1000000100100 m
b1000000100100 r
b1000000100100 %
b1000000100100 3
b1000000100100 Z
b1000000100100 d
b1000000100100 l
b1000000100100 !"
1H
0J
1O
1F
0P
0'
#10500
0q
1!
0"
1K
1B
0A
b1 1
b1 R
b1 T
b0 u
b0 $
b0 2
b0 S
b0 ~
b100100 `
b0 W
b0 j
b0 p
b100100 &
b100100 5
b100100 [
b100100 b
b100100 }
b1000000100100 Y
b1000000100100 e
b1000000100100 k
b101 i
b101 X
b101 a
b101 g
b0 z
b1000000100100 w
b0 v
b1000000100100 x
b1000000100100 t
b100100 f
b1000000100100 ]
b1000000100100 ^
b1000000100100 o
b11 {
06
00
0,
0-
b0 /
b0 Q
b0 U
b0 n
14
07
0)
1L
0N
0O
0I
0F
1:
1'
#11000
1J
0H
19
1F
0:
0'
#11500
b1 z
b1 y
b101 u
b101 $
b101 2
b101 S
b101 ~
b101 W
b101 j
b101 p
b101 &
b101 5
b101 [
b101 b
b101 }
b101 w
b0 x
b0 t
b110 f
1q
b110 ]
b110 ^
b110 o
b1 {
1N
0!
10
1,
1-
b10 /
b10 Q
b10 U
b10 n
1"
1I
04
0K
1)
09
0L
0F
1P
1'
#12000
b1100111111100100 |
b11000000011011 V
b11000000011011 m
b11000000011011 r
b11000000011011 %
b11000000011011 3
b11000000011011 Z
b11000000011011 d
b11000000011011 l
b11000000011011 !"
1H
0J
1O
1F
0P
0'
#12500
b1100111111100100 s
16
1M
0B
b11 1
b11 R
b11 T
b0 $
b0 2
b0 S
b0 ~
b11011 `
b0 W
b0 j
b0 p
b11011 &
b11011 5
b11011 [
b11011 b
b11011 }
b11000000011011 Y
b11000000011011 e
b11000000011011 k
b110 i
b110 X
b110 a
b110 g
b1100111111100100 x
b1100111111100100 w
b0 t
b0 u
b111111100101 f
b0 z
1q
b1100111111100101 ]
b1100111111100101 ^
b1100111111100101 o
b0 y
b0 {
0!
00
0,
0-
b11 /
b11 Q
b11 U
b11 n
1"
14
0K
0)
1L
0N
0O
0I
0F
1:
1'
#13000
b111111111111 f
b1111111111111111 ]
b1111111111111111 ^
b1111111111111111 o
b1111111111111110 w
b1111111111111110 x
b1111111111111110 s
b1111111111111110 |
b1 V
b1 m
b1 r
b1 %
b1 3
b1 Z
b1 d
b1 l
b1 !"
1J
0H
19
1F
0:
0'
#13500
0D
1E
b110 u
b110 $
b110 2
b110 S
b110 ~
1.
0*
b110 W
b110 j
b110 p
b110 &
b110 5
b110 [
b110 b
b110 }
b1111111111111111 \
b1111111111111111 _
b1111111111111111 c
b1111111111111111 h
b111 f
b111 ]
b111 ^
b111 o
b110 w
b0 x
b0 s
b1 {
1N
b10 /
b10 Q
b10 U
b10 n
06
10
1,
1-
1I
04
0M
1)
09
0L
0F
1P
1'
#14000
b1110111111011010 |
b1000000100101 V
b1000000100101 m
b1000000100101 r
b1000000100101 %
b1000000100101 3
b1000000100101 Z
b1000000100101 d
b1000000100101 l
b1000000100101 !"
1H
0J
1O
1F
0P
0'
#14500
b1000000100101 t
0q
1!
0"
1K
1B
b1 1
b1 R
b1 T
b0 u
b1111111111111111 $
b1111111111111111 2
b1111111111111111 S
b1111111111111111 ~
b100101 `
b1111111111111111 W
b1111111111111111 j
b1111111111111111 p
b100101 &
b100101 5
b100101 [
b100101 b
b100101 }
b1000000100101 Y
b1000000100101 e
b1000000100101 k
b111 i
b111 X
b111 a
b111 g
b0 y
b100101 f
b1000000100101 ]
b1000000100101 ^
b1000000100101 o
b0 z
b1000000100101 w
b0 v
b1000000100101 x
b0 s
b11 {
b0 /
b0 Q
b0 U
b0 n
06
00
0,
0-
14
0M
0)
1L
0N
0O
0I
0F
1:
1'
#15000
1J
0H
19
1F
0:
0'
#15500
b111 $
b111 2
b111 S
b111 ~
b111 W
b111 j
b111 p
b111 &
b111 5
b111 [
b111 b
b111 }
b0 x
b111 w
b0 v
b0 t
b111 u
b1000 f
b111 z
1q
b1000 ]
b1000 ^
b1000 o
b111 y
b1 {
1N
0!
10
1,
1-
b10 /
b10 Q
b10 U
b10 n
1"
1I
04
0K
1)
09
0L
0F
1P
1'
#16000
b1011111111110101 |
b100000000001010 V
b100000000001010 m
b100000000001010 r
b100000000001010 %
b100000000001010 3
b100000000001010 Z
b100000000001010 d
b100000000001010 l
b100000000001010 !"
1H
0J
1O
1F
0P
0'
#16500
1+
1>
0C
1A
b100 1
b100 R
b100 T
b1111111111111111 $
b1111111111111111 2
b1111111111111111 S
b1111111111111111 ~
b1010 `
b1111111111111111 W
b1111111111111111 j
b1111111111111111 p
b1010 &
b1010 5
b1010 [
b1010 b
b1010 }
b100000000001010 Y
b100000000001010 e
b100000000001010 k
b1000 i
b1000 X
b1000 a
b1000 g
b100000000001010 x
b100000000001010 w
b100000000001010 t
b0 u
b1010 f
b0 z
0q
b100000000001010 ]
b100000000001010 ^
b100000000001010 o
b0 y
b11 {
0!
00
0,
1-
b0 /
b0 Q
b0 U
b0 n
0"
14
0K
0)
1L
0N
0O
0I
0F
1:
1'
#17000
1J
0H
19
1F
0:
0'
#17500
b1010 $
b1010 2
b1010 S
b1010 ~
b1010 W
b1010 j
b1010 p
b1010 &
b1010 5
b1010 [
b1010 b
b1010 }
b1010 i
b1010 X
b1010 a
b1010 g
b0 y
b0 z
b0 x
b1010 w
b0 v
b0 t
b1010 u
b1011 f
1q
b1011 ]
b1011 ^
b1011 o
b1 {
1N
10
1,
b10 /
b10 Q
b10 U
b10 n
1"
1I
04
0>
1)
09
0L
0F
1P
1'
#18000
b11011 %
b11011 3
b11011 Z
b11011 d
b11011 l
b11011 !"
1H
0J
1O
1F
0P
0'
#18500
b1111111111100100 |
b11011 &
b11011 5
b11011 [
b11011 b
b11011 }
b11011 V
b11011 m
b11011 r
16
0-
1@
0+
1C
b0 1
b0 R
b0 T
b1111111111111111 $
b1111111111111111 2
b1111111111111111 S
b1111111111111111 ~
b11011 `
b1111111111111111 W
b1111111111111111 j
b1111111111111111 p
b11011 Y
b11011 e
b11011 k
b1011 i
b1011 X
b1011 a
b1011 g
b11011 x
b11011 w
b11011 t
b0 u
b11011 f
0q
b11011 ]
b11011 ^
b11011 o
b11 {
00
0,
b0 /
b0 Q
b0 U
b0 n
1"
14
0>
0)
1L
0N
0O
0I
0F
1:
1'
#19000
b1 f
b1 ]
b1 ^
b1 o
b1 w
b1 x
b1111111111111110 |
b1 t
b1 V
b1 m
b1 r
b1 %
b1 3
b1 Z
b1 d
b1 l
b1 !"
1J
0H
19
1F
0:
0'
#19500
1D
b1011 $
b1011 2
b1011 S
b1011 ~
0.
b1011 W
b1011 j
b1011 p
b1011 &
b1011 5
b1011 [
b1011 b
b1011 }
b1 \
b1 _
b1 c
b1 h
b0 x
b1011 w
b0 v
b0 t
b1011 u
b1100 f
b11 z
1q
b1100 ]
b1100 ^
b1100 o
b11 y
b1 {
1N
06
10
1,
1-
b10 /
b10 Q
b10 U
b10 n
1I
04
0@
1)
09
0L
0F
1P
1'
#20000
b1001111111110000 |
b110000000001111 V
b110000000001111 m
b110000000001111 r
b110000000001111 %
b110000000001111 3
b110000000001111 Z
b110000000001111 d
b110000000001111 l
b110000000001111 !"
1H
0J
1O
1F
0P
0'
#20500
0"
1;
1+
1?
0C
0B
b110 1
b110 R
b110 T
b1 $
b1 2
b1 S
b1 ~
b1111 `
b1 W
b1 j
b1 p
b1111 &
b1111 5
b1111 [
b1111 b
b1111 }
b110000000001111 Y
b110000000001111 e
b110000000001111 k
b1100 i
b1100 X
b1100 a
b1100 g
b110000000001111 x
b110000000001111 w
b110000000001111 t
b0 u
b1111 f
b0 z
0q
b110000000001111 ]
b110000000001111 ^
b110000000001111 o
b0 y
b11 {
06
00
0,
1-
b0 /
b0 Q
b0 U
b0 n
14
0@
0)
1L
0N
0O
0I
0F
1:
1'
#21000
1J
0H
19
1F
0:
0'
#21500
b1111 $
b1111 2
b1111 S
b1111 ~
b1111 W
b1111 j
b1111 p
b1111 &
b1111 5
b1111 [
b1111 b
b1111 }
b1111 i
b1111 X
b1111 a
b1111 g
b0 x
b1111 w
b0 v
b0 t
b1111 u
b10000 f
b1111 z
1q
b10000 ]
b10000 ^
b10000 o
b1111 y
b1 {
1N
0;
10
1,
b10 /
b10 Q
b10 U
b10 n
1"
1I
04
0?
1)
09
0L
0F
1P
1'
#22000
b100001 %
b100001 3
b100001 Z
b100001 d
b100001 l
b100001 !"
1H
0J
1O
1F
0P
0'
#22500
b1111111111011110 |
b100001 &
b100001 5
b100001 [
b100001 b
b100001 }
b100001 V
b100001 m
b100001 r
16
1@
0+
1C
1B
b0 1
b0 R
b0 T
b1 $
b1 2
b1 S
b1 ~
b100001 `
b1 W
b1 j
b1 p
b100001 Y
b100001 e
b100001 k
b10000 i
b10000 X
b10000 a
b10000 g
b100001 x
b100001 w
b100001 t
b0 u
b100001 f
b0 z
0q
b100001 ]
b100001 ^
b100001 o
b0 y
b11 {
0;
00
0,
0-
b0 /
b0 Q
b0 U
b0 n
1"
14
0?
0)
1L
0N
0O
0I
0F
1:
1'
#23000
b101001010101 f
b1101001010101 ]
b1101001010101 ^
b1101001010101 o
b1101001010101 w
b1101001010101 x
b1110010110101010 |
b1101001010101 t
b1101001010101 V
b1101001010101 m
b1101001010101 r
b1101001010101 %
b1101001010101 3
b1101001010101 Z
b1101001010101 d
b1101001010101 l
b1101001010101 !"
1J
0H
19
1F
0:
0'
#23500
b10000 $
b10000 2
b10000 S
b10000 ~
b10000 W
b10000 j
b10000 p
b10000 &
b10000 5
b10000 [
b10000 b
b10000 }
b1101001010101 \
b1101001010101 _
b1101001010101 c
b1101001010101 h
b0 x
b10000 w
b0 v
b0 t
b10000 u
b10001 f
b0 z
1q
b10001 ]
b10001 ^
b10001 o
b0 y
b1 {
1N
06
10
1,
1-
b10 /
b10 Q
b10 U
b10 n
1I
04
0@
1)
09
0L
0F
1P
1'
#24000
b1110111111011000 |
b1000000100111 V
b1000000100111 m
b1000000100111 r
b1000000100111 %
b1000000100111 3
b1000000100111 Z
b1000000100111 d
b1000000100111 l
b1000000100111 !"
1H
0J
1O
1F
0P
0'
#24500
0"
1!
1K
0A
b1 1
b1 R
b1 T
b1101001010101 $
b1101001010101 2
b1101001010101 S
b1101001010101 ~
b100111 `
b1101001010101 W
b1101001010101 j
b1101001010101 p
b100111 &
b100111 5
b100111 [
b100111 b
b100111 }
b1000000100111 Y
b1000000100111 e
b1000000100111 k
b10001 i
b10001 X
b10001 a
b10001 g
b1000000100111 x
b1000000100111 w
b1000000100111 t
b0 u
b100111 f
0q
b1000000100111 ]
b1000000100111 ^
b1000000100111 o
b11 {
06
00
0,
0-
b0 /
b0 Q
b0 U
b0 n
14
0@
0)
1L
0N
0O
0I
0F
1:
1'
#25000
1J
0H
19
1F
0:
0'
#25500
b10001 $
b10001 2
b10001 S
b10001 ~
b10001 W
b10001 j
b10001 p
b10001 &
b10001 5
b10001 [
b10001 b
b10001 }
b0 x
b10001 w
b0 v
b0 t
b10001 u
b10010 f
b1 z
1q
b10010 ]
b10010 ^
b10010 o
b1 y
b1 {
1N
0!
10
1,
1-
b10 /
b10 Q
b10 U
b10 n
1"
1I
04
0K
1)
09
0L
0F
1P
1'
#26000
b1111111111100010 |
b11101 V
b11101 m
b11101 r
b11101 %
b11101 3
b11101 Z
b11101 d
b11101 l
b11101 !"
1H
0J
1O
1F
0P
0'
#26500
16
1@
1A
b0 1
b0 R
b0 T
b1101001010101 $
b1101001010101 2
b1101001010101 S
b1101001010101 ~
b11101 `
b1101001010101 W
b1101001010101 j
b1101001010101 p
b11101 &
b11101 5
b11101 [
b11101 b
b11101 }
b11101 Y
b11101 e
b11101 k
b10010 i
b10010 X
b10010 a
b10010 g
b11101 x
b11101 w
b11101 t
b0 u
b11101 f
b0 z
0q
b11101 ]
b11101 ^
b11101 o
b0 y
b11 {
0!
00
0,
0-
b0 /
b0 Q
b0 U
b0 n
1"
14
0K
0)
1L
0N
0O
0I
0F
1:
1'
#27000
b0 f
b0 ]
b0 ^
b0 o
b0 w
b0 x
b1111111111111111 |
b0 t
b0 V
b0 m
b0 r
b0 %
b0 3
b0 Z
b0 d
b0 l
b0 !"
1J
0H
19
1F
0:
0'
#27500
0E
b10010 $
b10010 2
b10010 S
b10010 ~
1*
b10010 W
b10010 j
b10010 p
b10010 &
b10010 5
b10010 [
b10010 b
b10010 }
b0 \
b0 _
b0 c
b0 h
b0 z
b0 y
b10010 w
b10010 u
b10011 f
1q
b10011 ]
b10011 ^
b10011 o
b1 {
1N
06
10
1,
1-
b10 /
b10 Q
b10 U
b10 n
1I
04
0@
1)
09
0L
0F
1P
1'
#28000
b1001111111101011 |
b110000000010100 V
b110000000010100 m
b110000000010100 r
b110000000010100 %
b110000000010100 3
b110000000010100 Z
b110000000010100 d
b110000000010100 l
b110000000010100 !"
1H
0J
1O
1F
0P
0'
#28500
0"
1+
1?
0C
0B
b110 1
b110 R
b110 T
b0 $
b0 2
b0 S
b0 ~
b10100 `
b0 W
b0 j
b0 p
b10100 &
b10100 5
b10100 [
b10100 b
b10100 }
b110000000010100 Y
b110000000010100 e
b110000000010100 k
b10011 i
b10011 X
b10011 a
b10011 g
b110000000010100 x
b110000000010100 w
b110000000010100 t
b0 u
b10100 f
0q
b110000000010100 ]
b110000000010100 ^
b110000000010100 o
b11 {
06
00
0,
0-
b0 /
b0 Q
b0 U
b0 n
14
0@
0)
1L
0N
0O
0I
0F
1:
1'
#29000
1J
0H
19
1F
0:
0'
#29500
b11 z
b11 y
b10011 u
b10011 $
b10011 2
b10011 S
b10011 ~
b10011 W
b10011 j
b10011 p
b10011 &
b10011 5
b10011 [
b10011 b
b10011 }
b10011 w
b0 x
b0 t
b10100 f
1q
b10100 ]
b10100 ^
b10100 o
b1 {
1N
10
1,
1-
b10 /
b10 Q
b10 U
b10 n
1"
1I
04
0?
1)
09
0L
0F
1P
1'
#30000
b100000000010111 %
b100000000010111 3
b100000000010111 Z
b100000000010111 d
b100000000010111 l
b100000000010111 !"
1H
0J
1O
1F
0P
0'
#30500
b1011111111101000 |
b100000000010111 V
b100000000010111 m
b100000000010111 r
1>
1B
b100 1
b100 R
b100 T
b0 $
b0 2
b0 S
b0 ~
b10111 `
b0 W
b0 j
b0 p
b10111 &
b10111 5
b10111 [
b10111 b
b10111 }
b100000000010111 Y
b100000000010111 e
b100000000010111 k
b10100 i
b10100 X
b10100 a
b10100 g
b100000000010111 x
b100000000010111 w
b100000000010111 t
b0 u
b10111 f
b0 z
0q
b100000000010111 ]
b100000000010111 ^
b100000000010111 o
b0 y
b11 {
00
0,
1-
b0 /
b0 Q
b0 U
b0 n
0"
14
0?
0)
1L
0N
0O
0I
0F
1:
1'
#31000
1J
0H
19
1F
0:
0'
#31500
b10111 u
b10111 $
b10111 2
b10111 S
b10111 ~
b10111 W
b10111 j
b10111 p
b10111 &
b10111 5
b10111 [
b10111 b
b10111 }
b10111 i
b10111 X
b10111 a
b10111 g
b10111 w
b0 x
b0 t
b11000 f
b111 z
1q
b11000 ]
b11000 ^
b11000 o
b111 y
b1 {
1N
10
1,
b10 /
b10 Q
b10 U
b10 n
1"
1I
04
0>
1)
09
0L
0F
1P
1'
#32000
b100001 %
b100001 3
b100001 Z
b100001 d
b100001 l
b100001 !"
1H
0J
1O
1F
0P
0'
#32500
b1111111111011110 |
b100001 &
b100001 5
b100001 [
b100001 b
b100001 }
b100001 V
b100001 m
b100001 r
16
0-
1@
0+
1C
b0 1
b0 R
b0 T
b0 $
b0 2
b0 S
b0 ~
b100001 `
b0 W
b0 j
b0 p
b100001 Y
b100001 e
b100001 k
b11000 i
b11000 X
b11000 a
b11000 g
b100001 x
b100001 w
b100001 t
b0 u
b100001 f
b0 z
0q
b100001 ]
b100001 ^
b100001 o
b0 y
b11 {
00
0,
b0 /
b0 Q
b0 U
b0 n
1"
14
0>
0)
1L
0N
0O
0I
0F
1:
1'
#33000
b101001010101 f
b1101001010101 ]
b1101001010101 ^
b1101001010101 o
b1101001010101 w
b1101001010101 x
b1110010110101010 |
b1101001010101 t
b1101001010101 V
b1101001010101 m
b1101001010101 r
b1101001010101 %
b1101001010101 3
b1101001010101 Z
b1101001010101 d
b1101001010101 l
b1101001010101 !"
1J
0H
19
1F
0:
0'
#33500
1E
b11000 u
b11000 $
b11000 2
b11000 S
b11000 ~
0*
b11000 W
b11000 j
b11000 p
b11000 &
b11000 5
b11000 [
b11000 b
b11000 }
b1101001010101 \
b1101001010101 _
b1101001010101 c
b1101001010101 h
b11000 w
b0 x
b0 t
b11001 f
b0 z
1q
b11001 ]
b11001 ^
b11001 o
b0 y
b1 {
1N
06
10
1,
1-
b10 /
b10 Q
b10 U
b10 n
1I
04
0@
1)
09
0L
0F
1P
1'
#34000
b1110111111010111 |
b1000000101000 V
b1000000101000 m
b1000000101000 r
b1000000101000 %
b1000000101000 3
b1000000101000 Z
b1000000101000 d
b1000000101000 l
b1000000101000 !"
1H
0J
1O
1F
0P
0'
